<svg version="1.1" id="mountains-2" xmlns="http://www.w3.org/2000/svg" xmlns:xlink="http://www.w3.org/1999/xlink" x="0px" y="0px"
	 viewBox="0 0 1080 480" enable-background="new 0 0 1080 480" xml:space="preserve">
<path id="_x32_" class="mountains-2" fill="#333333" d="M1075.912,332.021c-1.819-0.099-3.648-0.021-6.328-0.021c-0.525-0.761-1.372-1.987-2.149-3.113
	c-1.466,0.473-2.39,1.479-3.872,1.153c-2.093-0.459-3.03,0.668-3.9,2.624c-0.797,1.793-1.358,3.902-3.145,5.3
	c-4.488,0.498-8.852-1.512-13.474-1.132c-1.229,0.101-3.467-0.74-4.026-2.743c-0.344-1.23-0.951-2.035-2.639-2.112
	c-0.79,0.982-1.72,2.139-2.432,3.023c-2.989,0-5.489,0.007-7.989-0.002c-2.33-0.009-3.912-1.811-5.958-2.504
	c-0.201-2.822-2.956-3.041-4.582-4.499c-1.172,1.639-3.159,3.254-4.682,2.827c-3.419-0.957-7.045-1.251-10.293-2.857
	c-2.402-1.188-3.042-1.199-5.771-0.979c-1.128,0.09-2.27,0.015-3.251,0.015c-0.618-0.861-1.115-1.417-1.502-2.163
	c-1.282-2.468-2.501-2.603-4.511-0.688c-0.695,0.663-1.065,1.668-1.284,2.025c-2.602-0.185-4.294-0.063-5.854-0.46
	c-4.953-1.263-5.143-1.181-7.62,3.018c-0.411,0.697-0.424,1.525-0.949,2.116c-1.158,0.227-2.355,0.439-3.353-0.11
	c-0.394-0.217-1.724-0.561-0.892-1.697c1.804-2.467-0.364-3.861-1.819-4.693c-1.304-0.746-2.915-1.482-3.282-2.646
	c-0.917-2.909-3.618-3.293-5.584-4.679c-2.859-2.017-6.16-2.744-9.566-3.518c-2.841-0.645-4.977-0.729-7.01,1.748
	c-1.978-1.697-4.622-1.573-6.751-3.15c-2.423-1.795-5.208-1.623-7.537,0.711c0.461,1.996,2.878,2.417,3.118,4.364
	c-2.4,2.347-2.792,2.409-4.641,0.699c-0.611-0.566-1.164-1.194-1.774-1.761c-1.651-1.53-2.072-1.534-4.118-0.109
	c-2.009,1.399-2.339,1.357-4.129-0.127c-1.474-1.224-2.855-2.745-4.562-3.465c-3.366-1.421-6.308-4.461-10.786-3.132
	c-1.242,1.468-1.642,4.038-4.211,4.743c-1.486-0.967-2.704-2.027-3.218-4.027c-1.325,0-2.646,0-4.368,0
	c-0.769-1-1.697-2.096-2.519-3.119c-3.325,0-6.72,0.903-9.19-0.225c-2.815-1.286-5.858,0.568-8.407-1.556
	c-0.665-0.555-2.361-0.35-3.574,0.772c-3.921,3.623-3.995,3.476-9.354,3.153c-2.657-0.159-5.333,0.033-7.997-0.046
	c-2.184-0.065-4.143,0.327-5.668,2.02c-6.379-4.066-9.51-6.828-9.51-8.404c1.051-0.816,2.776-0.892,3-2.654
	c-0.014-0.161,0.034-0.373-0.051-0.475c-1.785-2.142-3.99-2.062-6.083-0.759c-1.902,1.185-3.944,1.746-5.955,1.219
	c-3.127-0.821-5.987-2.553-9.276-2.927c-2.559-3.26-5.85-2.707-9.356-2.076c-2.26,0.406-4.652,0.073-6.985,0.078
	c-0.679,0.001-1.371,0.007-1.293,0.998c-1.555,1.061-2.858,1.332-4.719,0.08c-3.575-2.407-8.369-2.521-11.557-5.826
	c-0.185-0.191-0.586-0.247-0.885-0.242c-3.029,0.044-6.126-0.493-8.883,1.475c-1.109,0.791-2.666,0.995-3.691,1.855
	c-1.078,0.905-2.398,0.982-3.207,0.576c-3.469-1.742-7.087-0.739-10.615-0.852c-2.597-0.082-5.161-0.615-7.333-1.632
	c-4.359-2.041-9.033-2.371-13.523-3.588c-3.607-0.979-7.633-0.207-10.898-2.597c-0.448-0.328-1.252-0.271-1.882-0.233
	c-2.32,0.142-4.331-0.386-6.289-1.8c-0.603-0.436-1.518-1.336-2.45-1.178c-2.341,0.396-4.195-1.51-6.595-1.104
	c-2.371,0.402-4.532-1.426-7.076-1.002c-1.696,0.283-6.384-1.32-7.058-2.129c-1.688-2.023-3.913-3.173-6.242-4.246
	c-1.37-0.631-3.03-0.996-3.22-3.082c-0.047-0.509-0.887-1.609-1.79-1.434c-1.886,0.366-3.296-1.205-5.087-1.043
	c-2.67-2.171-5.179-4.598-8.066-6.424c-2.035-1.286-4.132-2.976-6.915-2.606c-0.59,0.078-1.272,0.281-1.866-0.296
	c-2.353-2.286-5.658-2.427-8.44-3.733c-1.033-0.485-1.965-0.814-3.102-1.005c-3.077-0.514-6.266-0.715-9.145-2.016
	c-2.812-1.27-5.501-2.809-8.256-4.206c-4.98-2.525-9.921-5.168-15.627-5.714c-0.652-1.703-2.512-0.428-3.427-1.364
	c-2.204-2.259-5.339-2.413-7.989-3.651c-4.33-2.023-9.066-3.56-12.772-6.415c-3.048-2.349-6.153-2.982-9.578-3.598
	c-2.668-0.479-5.33-1.454-6.901-3.696c-1.313-1.871-3.018-2.824-4.897-3.791c-1.53-0.788-3.04-1.558-4.777-1.744
	c-2.082-3.649-7.114-2.957-9.358-6.363c-0.35-0.53-0.895-0.444-1.342-0.359c-2.589,0.493-4.63-0.943-6.637-2.081
	c-1.888-1.07-3.78-2.173-5.614-3.312c-2.054-1.274-4.663,0.451-6.345-1.625c-2.965,0.321-5.354-1.604-8.147-2.113
	c-2.834-0.519-5.631-1.385-8.38-2.659c-2.582-1.197-5.646-1.55-8.149-3.228c-4.522,0.217-8.697-1.723-13.151-2.153
	c-2.393-0.23-4.927-0.637-7.338-1.46c-2.359-0.806-4.931-1.205-7.432-1.329c-4.045-0.2-7.966-1.751-12.078-1.058
	c-2.183-2.171-5.304-0.102-7.786-1.801c-1.139-0.779-3.289-0.47-4.863-0.122c-1.834,0.405-2.884-1.469-4.61-1.12
	c-0.571,0.115-0.875,0.405-1.193,0.746c-0.415,0.446-1.145,0.455-1.321,0.219c-1.151-1.536-2.78-0.983-4.14-0.858
	c-2.176,0.2-4.245-0.214-6.056-1.129c-2.936-1.484-6.32-1.681-9.1-3.353c-1.155-0.695-2.322-0.817-3.245-0.503
	c-2.329,0.794-5.144,0.202-6.997,2.429c-0.724,0.869-1.839,0.731-2.67,0.232c-2.042-1.227-3.835-2.487-6.449-0.873
	c-0.866,0.535-2.65,0.123-4.165-0.463c-2.333-0.902-5.457-1.298-7.537,0.207c-2,1.446-4.371,1.594-6.354,2.933
	c-1.455,0.982-3.721,1.383-5.356,1.281c-3.354-0.21-6.775-0.981-9.81-2.715c-4.301-2.458-8.589-4.939-13.265-7.631
	c-0.644,3.294,2.521,3.002,3.384,4.599c1.049,1.942,3.374,3.04,4.409,4.983c-1.129,2.051-2.847,3.201-4.585,3.741
	c-2.178,0.677-1.9,3.294-3.799,3.916c-0.595,0.194-1.253,0.199-1.884,0.28c-1.775,0.226-3.328,0.891-4.588,2.205
	c-1.005,1.048-2.051,2.056-3.171,3.175c-2.812-1.696-6.164-0.962-8.478-3.24c-1.691,0.343-2.879-1.313-4.527-1.138
	c-2.209,0.234-3.918-0.767-5.703-1.951c-2.255-1.497-2.787-2.116-2.409-4.483c0.368-2.304-0.006-2.469-1.346-3.625
	c-1.962-1.693-4.11-0.58-6.134-0.941c-1.757,2.333-3.696,0.591-5.057-0.221c-1.734-1.036-3.942-1.328-5.246-3.067
	c-0.438-0.585-0.99-0.885-1.706-0.705c-1.75,0.439-2.645-0.801-3.791-1.742c-4.189-3.444-8.869-5.985-14.392-6.217
	c-4.875-0.203-9.184-1.554-13.249-4.315c-1.846-1.254-4.37-2.582-6.656-1.507c-2.281,1.072-4.277,1.005-6.46,0.238
	c-2.18-0.767-4.543-0.78-6.527-2.406c-2.024-1.659-4.395-2.719-7.186-3.168c-4.221-0.681-8.351-1.969-12.684-1.876
	c-2.428,0.053-4.575-1.695-7.079-1.025c-2.896-2.281-6.794-2.22-9.79-4.076c-2.005-1.242-4.233-0.943-6.28-1.771
	c-1.299-0.527-2.71,1.352-4.144,1.75c-0.952,0.264-1.823,1.752-2.482,1.042c-1.735-1.868-4.252,0.04-5.9-1.546
	c-0.563-0.541-1.181-0.642-1.696-0.059c-1.113,1.258-3.083,0.418-4.227,2.043c-0.867,1.229-2.882,1.138-3.896,0.066
	c-1.337-1.41-2.783-1.389-4.443-1.476c-2.542-0.132-5.108,0.55-7.655-0.833c-0.968-0.525-3.072-0.868-4.106,0.575
	c-1.096,1.53-2.544,1.175-3.99,1.317c-2.948,0.291-5.741-0.782-8.48-1.371c-2.562-0.552-5.802-0.553-7.591-3.319
	c-0.44-0.681-1.272-0.111-1.846-0.346c-6.328-2.585-13.128-4.187-18.11-9.485c-1.223-1.301-3.462-1.616-3.873-3.853
	c-0.093-0.507-0.575-0.733-1.128-0.647c-2.237,0.349-2.574-1.455-3.216-2.875c-0.799-1.768-1.832-3.148-3.814-3.875
	c-2.293-0.84-4.205-2.244-5.623-4.438c-1.021-1.578-2.49-3.189-4.474-3.523c-3.42-0.574-5.004-2.991-6.796-5.541
	c-1.453-2.068-3.063-4.238-5.735-5.059c-2.088-0.641-3.307-2.467-4.681-3.652c-3.141-0.179-6.185,0.596-8.603-1.662
	c-0.441-0.412-0.88-0.392-1.353-0.369c-4.163,0.203-7.592-1.529-10.978-3.738c-0.754-0.492-1.709-1.58-2.942-1.255
	c-1.783,0.47-3.237-0.582-4.391-1.421c-2.007-1.46-4.084-1.675-6.366-1.604c-1.288,0.04-2.419,0.012-3.58-1.073
	c-2.572-2.401-5.62-2.695-8.665-0.773c-2.052-2.074-3.992-3.993-6.368-5.476c-1.125-0.703-2.322-1.153-3.038-0.285
	c-2.274,2.756-5.395,1.991-7.762,1.3c-2.004-0.585-3.633-0.505-5.25-0.518c-0.731,2.412,0.356,4.054,1.204,5.756
	c1.81,0.387,3.461-0.097,4.254-0.68c1.565,1.52,2.847,2.765,4.124,4.004c-1.88,2.088-1.88,2.087-3.935,1.121
	c-1-0.469-2.125-0.716-2.773-1.763c-0.542-0.876-1.645-0.876-2.21-0.544c-1.952,1.146-3.775,1.205-5.923,0.485
	c-2.069-0.693-4.177-1.04-6.015-2.459c-0.759-0.586-1.508-1.207-2.184-1.866c-1.576-1.538-3.397-2.499-5.585-2.183
	C5.425,93.433,3.246,92.18,1,91c0,21.667,0,43.334,0,65c0,29.667,0,59.333,0,89c0,79,0,158,0,237c281.667,0,563.333,0,845,0
	c78.333,0,156.667,0,235,0c0-21.333,0-42.667,0-64c0-1.333,0-2.667,0-4c0-27.667,0-55.333,0-83
	C1079.136,330.474,1077.718,332.12,1075.912,332.021z"/>
</svg>